<svg xmlns="http://www.w3.org/2000/svg" width="4.989" height="3.096" viewBox="0 0 4.989 3.096">
  <path id="BackArrow-White-icon" d="M1192.411,86.981h-4.035l.962-.963a.216.216,0,0,0-.305-.306l-1.332,1.332a.217.217,0,0,0,0,.306l1.332,1.331a.218.218,0,0,0,.153.064.217.217,0,0,0,.152-.369l-.962-.963h4.035a.216.216,0,0,0,0-.432Z" transform="translate(1192.627 88.745) rotate(180)" fill="#fff"/>
</svg>
