<svg xmlns="http://www.w3.org/2000/svg" width="6" height="6" viewBox="0 0 6 6">
  <g id="Brand-Icon" transform="translate(0 -0.112)">
    <path id="Path_371" data-name="Path 371" d="M1447.745,239.347Z" transform="translate(-1443.167 -238.923)" fill="#dcab2b"/>
    <g id="Polygon_1" data-name="Polygon 1" transform="translate(0 0.112)" fill="none" stroke-linecap="round" stroke-linejoin="round">
      <path d="M3,0l.96,1.927L6,2.292,4.553,3.847,4.854,6,3,5.034,1.146,6l.3-2.153L0,2.292l2.04-.364Z" stroke="none"/>
      <path d="M 3 0.672877311706543 L 2.30853009223938 2.061140060424805 C 2.266220092773438 2.146100044250488 2.186189889907837 2.20602011680603 2.092750072479248 2.22271990776062 L 0.5943574905395508 2.490381479263306 L 1.666369915008545 3.643090009689331 C 1.727859973907471 3.709199905395508 1.75629997253418 3.799489974975586 1.743800163269043 3.888910055160522 L 1.523574829101563 5.464957237243652 L 2.861390113830566 4.767960071563721 C 2.904819965362549 4.745335102081299 2.952409982681274 4.734022617340088 3 4.734022617340088 C 3.047590017318726 4.734022617340088 3.095180034637451 4.745335102081299 3.138609886169434 4.767960071563721 L 4.476425170898438 5.464957237243652 L 4.256199836730957 3.888910055160522 C 4.24370002746582 3.799489974975586 4.272140026092529 3.709199905395508 4.333630084991455 3.643090009689331 L 5.405642509460449 2.490381479263306 L 3.907249927520752 2.22271990776062 C 3.813810110092163 2.20602011680603 3.733779907226563 2.146100044250488 3.69146990776062 2.061140060424805 L 3 0.672877311706543 M 3 0 L 3.960000038146973 1.927390098571777 L 6 2.291800022125244 L 4.553309917449951 3.847389936447144 L 4.854100227355957 6 L 3 5.034019947052002 L 1.145899772644043 6 L 1.446690082550049 3.847389936447144 L 0 2.291800022125244 L 2.039999961853027 1.927390098571777 L 3 0 Z" stroke="none" fill="#6e7990"/>
    </g>
  </g>
</svg>
