<svg xmlns="http://www.w3.org/2000/svg" width="4.019" height="4.536" viewBox="0 0 4.019 4.536">
  <g id="Edit-icon" transform="translate(-1591.073 -515.905)">
    <g id="Path_1544" data-name="Path 1544" fill="none" stroke-linecap="round" stroke-linejoin="round">
      <path d="M1593.655,518.795q.676-.807,1.354-1.612a.307.307,0,0,0,.076-.274l0-.018a.856.856,0,0,0-.067-.215,1.432,1.432,0,0,0-.847-.725.934.934,0,0,0-.185-.035l-.068-.01a.136.136,0,0,0-.045,0,.363.363,0,0,0-.222.127q-1.174,1.4-2.353,2.8a.357.357,0,0,0-.083.192c-.036.311-.075.624-.113.936l-.023.2a.27.27,0,0,0,0,.056.245.245,0,0,0,.085.167.25.25,0,0,0,.234.044l.172-.053q.465-.141.93-.285a.366.366,0,0,0,.16-.107c.177-.207.351-.416.526-.624l.474-.565Z" stroke="none"/>
      <path d="M 1591.3759765625 520.125732421875 L 1591.479370117188 520.0938720703125 C 1591.788940429688 520.0000610351563 1592.098388671875 519.9052124023438 1592.404663085938 519.8103637695313 C 1592.411743164063 519.80810546875 1592.424560546875 519.7998046875 1592.430908203125 519.7924194335938 C 1592.556030273438 519.6461181640625 1592.679565429688 519.4988403320313 1592.803100585938 519.3516235351563 L 1592.955200195313 519.1705322265625 L 1593.429077148438 518.6055908203125 C 1593.880126953125 518.0675048828125 1594.332275390625 517.529296875 1594.785278320313 516.9910888671875 C 1594.793823242188 516.9810180664063 1594.797119140625 516.9744262695313 1594.796875 516.971435546875 L 1594.79248046875 516.951416015625 C 1594.782958984375 516.9055786132813 1594.77099609375 516.8484497070313 1594.751220703125 516.8096923828125 C 1594.606567382813 516.5252075195313 1594.384521484375 516.3356323242188 1594.07373046875 516.2306518554688 C 1594.042846679688 516.2203369140625 1593.999267578125 516.215087890625 1593.957153320313 516.2099609375 L 1593.9462890625 516.2086181640625 C 1593.940551757813 516.2079467773438 1593.934814453125 516.2070922851563 1593.92919921875 516.2060546875 C 1593.92236328125 516.2047729492188 1593.915283203125 516.2039794921875 1593.908203125 516.2030639648438 C 1593.906127929688 516.2027587890625 1593.904052734375 516.2025146484375 1593.901977539063 516.2022094726563 C 1593.88720703125 516.20751953125 1593.88037109375 516.2144775390625 1593.873046875 516.2232666015625 C 1593.089965820313 517.1583862304688 1592.304809570313 518.093505859375 1591.519653320313 519.027587890625 C 1591.511108398438 519.037841796875 1591.505981445313 519.0469970703125 1591.50390625 519.06396484375 C 1591.47705078125 519.295654296875 1591.448608398438 519.5284423828125 1591.420043945313 519.7611083984375 L 1591.390747070313 520.00048828125 L 1591.3759765625 520.125732421875 M 1591.31494140625 520.4405517578125 C 1591.257446289063 520.4405517578125 1591.202514648438 520.4215698242188 1591.159057617188 520.385009765625 C 1591.109985351563 520.343994140625 1591.079956054688 520.2839965820313 1591.073974609375 520.218017578125 C 1591.072021484375 520.2000122070313 1591.072998046875 520.1810302734375 1591.074951171875 520.1619873046875 L 1591.098022460938 519.9660034179688 C 1591.135986328125 519.6539916992188 1591.175048828125 519.3410034179688 1591.211059570313 519.030029296875 C 1591.219970703125 518.9569702148438 1591.246948242188 518.8939819335938 1591.2939453125 518.8380126953125 C 1592.078979492188 517.9039916992188 1592.864013671875 516.968994140625 1593.64697265625 516.0339965820313 C 1593.704956054688 515.9650268554688 1593.776977539063 515.9240112304688 1593.869018554688 515.906982421875 C 1593.877319335938 515.9053344726563 1593.885864257813 515.9046020507813 1593.894165039063 515.9046020507813 C 1593.901000976563 515.9046020507813 1593.90771484375 515.9050903320313 1593.913940429688 515.906005859375 C 1593.93701171875 515.9099731445313 1593.9599609375 515.9119873046875 1593.982055664063 515.916015625 C 1594.038940429688 515.9229736328125 1594.10400390625 515.9299926757813 1594.1669921875 515.9509887695313 C 1594.548950195313 516.0800170898438 1594.8349609375 516.323974609375 1595.014038085938 516.676025390625 C 1595.050048828125 516.7470092773438 1595.067016601563 516.823974609375 1595.0810546875 516.8909912109375 L 1595.0849609375 516.9089965820313 C 1595.10595703125 517.0059814453125 1595.0810546875 517.0989990234375 1595.009033203125 517.1829833984375 C 1594.557983398438 517.718994140625 1594.10595703125 518.2570190429688 1593.655029296875 518.7949829101563 L 1593.181030273438 519.3599853515625 C 1593.005981445313 519.5679931640625 1592.83203125 519.7769775390625 1592.655029296875 519.9840087890625 C 1592.613037109375 520.0330200195313 1592.553955078125 520.072021484375 1592.494995117188 520.0910034179688 C 1592.18505859375 520.18701171875 1591.875 520.281982421875 1591.56494140625 520.3759765625 L 1591.392944335938 520.4290161132813 C 1591.366943359375 520.436767578125 1591.340698242188 520.4405517578125 1591.31494140625 520.4405517578125 Z" stroke="none" fill="#272a3f"/>
    </g>
    <path id="Path_1545" data-name="Path 1545" d="M1594.688,517.136" fill="none" stroke="#272a3f" stroke-linecap="round" stroke-linejoin="round" stroke-width="0.295"/>
    <line id="Line_89" data-name="Line 89" x1="1.08" y1="0.906" transform="translate(1593.457 516.55)" fill="none" stroke="#272a3f" stroke-linecap="round" stroke-linejoin="round" stroke-width="0.295"/>
  </g>
</svg>
