<svg xmlns="http://www.w3.org/2000/svg" width="4.77" height="4.771" viewBox="0 0 4.77 4.771">
  <g id="Time-icon" transform="translate(-1254.419 -718.389)">
    <path id="Path_1152" data-name="Path 1152" d="M1254.536,720.774a2.267,2.267,0,0,1,2.268-2.268" fill="none" stroke="#6e7990" stroke-linecap="round" stroke-linejoin="round" stroke-width="0.235" stroke-dasharray="0 0.469"/>
    <g id="Path_1153" data-name="Path 1153" fill="none" stroke-linecap="round" stroke-linejoin="round">
      <path d="M1256.713,720.995a.226.226,0,0,0,.163.091h.018a.225.225,0,0,0,.222-.241.226.226,0,0,0-.091-.163l-.81-.585a.063.063,0,0,0-.081.006.061.061,0,0,0-.006.081Z" stroke="none"/>
      <path d="M 1256.89404296875 721.0869750976563 L 1256.8759765625 721.0859985351563 C 1256.81103515625 721.0809936523438 1256.751953125 721.0469970703125 1256.713012695313 720.9949951171875 L 1256.128051757813 720.1849975585938 C 1256.109008789063 720.1599731445313 1256.112060546875 720.1259765625 1256.134033203125 720.10400390625 C 1256.146240234375 720.09228515625 1256.162231445313 720.086181640625 1256.178344726563 720.086181640625 C 1256.191040039063 720.086181640625 1256.203857421875 720.0900268554688 1256.214965820313 720.0980224609375 L 1257.025024414063 720.6829833984375 C 1257.077026367188 720.7219848632813 1257.110961914063 720.781005859375 1257.115966796875 720.8460083007813 C 1257.120971679688 720.9119873046875 1257.097045898438 720.9749755859375 1257.051025390625 721.02099609375 C 1257.009033203125 721.06298828125 1256.952026367188 721.0869750976563 1256.89404296875 721.0869750976563 Z" stroke="none" fill="#6e7990"/>
    </g>
    <path id="Path_1154" data-name="Path 1154" d="M1256.951,720.785" stroke="#6e7990" stroke-miterlimit="10" stroke-width="0.227"/>
    <path id="Path_1155" data-name="Path 1155" d="M1256.8,719.21v-.7a2.268,2.268,0,1,1-2.268,2.268" fill="none" stroke="#6e7990" stroke-linecap="round" stroke-linejoin="round" stroke-width="0.235"/>
    <g id="Group_943" data-name="Group 943">
      <line id="Line_36" data-name="Line 36" y1="0.276" x2="0.276" transform="translate(1255.2 722.101)" fill="none" stroke="#6e7990" stroke-linecap="round" stroke-linejoin="round" stroke-width="0.235"/>
      <line id="Line_37" data-name="Line 37" y1="0.276" x2="0.276" transform="translate(1258.131 719.17)" fill="none" stroke="#6e7990" stroke-linecap="round" stroke-linejoin="round" stroke-width="0.235"/>
      <line id="Line_38" data-name="Line 38" x2="0.276" y2="0.276" transform="translate(1258.131 722.101)" fill="none" stroke="#6e7990" stroke-linecap="round" stroke-linejoin="round" stroke-width="0.235"/>
    </g>
    <g id="Group_944" data-name="Group 944">
      <line id="Line_39" data-name="Line 39" y1="0.704" transform="translate(1256.804 722.338)" fill="none" stroke="#6e7990" stroke-linecap="round" stroke-linejoin="round" stroke-width="0.235"/>
      <line id="Line_40" data-name="Line 40" x2="0.704" transform="translate(1254.536 720.774)" fill="none" stroke="#6e7990" stroke-linecap="round" stroke-linejoin="round" stroke-width="0.235"/>
      <line id="Line_41" data-name="Line 41" x2="0.704" transform="translate(1258.368 720.774)" fill="none" stroke="#6e7990" stroke-linecap="round" stroke-linejoin="round" stroke-width="0.235"/>
    </g>
  </g>
</svg>
