<svg xmlns="http://www.w3.org/2000/svg" width="10.459" height="10.938" viewBox="0 0 10.459 10.938">
  <g id="top10-Perfume-Icon" transform="translate(-191.88 -168.616)">
    <g id="Group_2070" data-name="Group 2070" transform="translate(191.88 168.616)">
      <g id="Group_2067" data-name="Group 2067" transform="translate(0 3.566)">
        <g id="Group_2064" data-name="Group 2064">
          <g id="Group_2063" data-name="Group 2063">
            <path id="Path_2327" data-name="Path 2327" d="M192.593,223.574a.713.713,0,1,1,.713-.707A.717.717,0,0,1,192.593,223.574Zm.237-.708a.237.237,0,1,0-.247.232A.24.24,0,0,0,192.83,222.866Z" transform="translate(-191.88 -222.148)" fill="#9aa1b1"/>
          </g>
        </g>
        <g id="Group_2066" data-name="Group 2066" transform="translate(9.034 0.001)">
          <g id="Group_2065" data-name="Group 2065">
            <path id="Path_2328" data-name="Path 2328" d="M327.491,222.873a.713.713,0,1,1,.721.711A.712.712,0,0,1,327.491,222.873Zm.95-.008a.237.237,0,1,0-.237.242A.24.24,0,0,0,328.44,222.865Z" transform="translate(-327.491 -222.158)" fill="#9aa1b1"/>
          </g>
        </g>
      </g>
      <g id="Group_2069" data-name="Group 2069" transform="translate(1.193 0)">
        <g id="Group_2068" data-name="Group 2068">
          <path id="Path_2329" data-name="Path 2329" d="M217.592,174.758a4.571,4.571,0,0,0-1.766-2.164.2.2,0,0,1-.1-.189c.007-.376,0-.753,0-1.129,0-.2-.088-.282-.284-.283h-.429v-.146c0-.471,0-.943,0-1.414a.806.806,0,0,0-.813-.816c-.25,0-.5,0-.749,0a.747.747,0,0,0-.312.063.787.787,0,0,0-.5.754c-.006.514,0,1.029,0,1.56h-.418c-.212,0-.294.083-.295.3,0,.376,0,.753,0,1.129a.174.174,0,0,1-.094.17,3.9,3.9,0,0,0-.529.4,4.2,4.2,0,0,0-1.509,2.993,3.96,3.96,0,0,0,1.59,3.459.49.49,0,0,0,.326.11q2.115,0,4.23,0a.522.522,0,0,0,.337-.117A4.057,4.057,0,0,0,217.592,174.758Zm-4.482-5.278a.344.344,0,0,1,.386-.388c.226,0,.451,0,.677,0a.339.339,0,0,1,.362.365c0,.11,0,.221,0,.347h-.619c-.218,0-.329.079-.331.235s.112.241.337.241h.608v.7h-1.407c-.023-.032-.013-.069-.013-.1Q213.11,170.181,213.111,169.48Zm-.708,2h2.847c0,.292,0,.577,0,.861,0,.023,0,.046,0,.075H212.4Zm4.978,4.976s-.072.489-.066.489c-.022.1-.048.205-.078.3v.005h0a3.517,3.517,0,0,1-.93,1.529c-.306.3-.308.3-.735.3q-1.877,0-3.754,0a.348.348,0,0,1-.236-.082,3.6,3.6,0,0,1-1.223-1.943h0a2.95,2.95,0,0,1-.1-.747c0-.005,0-.01,0-.015a3.275,3.275,0,0,1,.036-.571h0s0-.019.009-.053.008-.048.013-.072a3.492,3.492,0,0,1,.209-.74c.022-.053.047-.1.071-.156a4.193,4.193,0,0,1,1.573-1.767.233.233,0,0,1,.133-.037h3.041a.213.213,0,0,1,.124.029,4.138,4.138,0,0,1,1.648,1.93h0c.013.032.025.064.037.1l0,.011,0,.008a2.734,2.734,0,0,1,.221,1.016h0c.007.106.009.213.006.32h0l0,.025Q217.385,176.391,217.381,176.453Z" transform="translate(-209.786 -168.616)" fill="#9aa1b1"/>
        </g>
      </g>
    </g>
    <g id="Group_2072" data-name="Group 2072" transform="translate(194.85 173.87)">
      <g id="Group_2071" data-name="Group 2071" transform="translate(0 0)">
        <path id="Path_2330" data-name="Path 2330" d="M238.721,252a.425.425,0,0,1-.261-.111.322.322,0,0,0-.321-.064.362.362,0,0,1-.483-.2.318.318,0,0,0-.267-.178.358.358,0,0,1-.369-.37.348.348,0,0,0-.193-.281.362.362,0,0,1-.189-.473.313.313,0,0,0-.061-.313.366.366,0,0,1,0-.531.316.316,0,0,0,.063-.313.365.365,0,0,1,.2-.49.315.315,0,0,0,.175-.261.365.365,0,0,1,.381-.377.305.305,0,0,0,.257-.176.356.356,0,0,1,.336-.226h0a.836.836,0,0,1,.208.033l.031.008a.18.18,0,0,0,.156-.034c.3-.2.365-.2.671,0a.193.193,0,0,0,.162.03c.354-.073.412-.049.613.255a.181.181,0,0,0,.131.091c.042.006.085.014.127.023a.364.364,0,0,1,.33.333l.005.026c.008.04.016.08.023.121a.136.136,0,0,0,.063.092l.07.046a.391.391,0,0,1,.215.536.265.265,0,0,0,.051.252.4.4,0,0,1,0,.588.24.24,0,0,0-.05.243.4.4,0,0,1,.015.061l0,.012a.366.366,0,0,1-.212.455.3.3,0,0,0-.177.262.366.366,0,0,1-.378.377.313.313,0,0,0-.26.176.367.367,0,0,1-.491.2.316.316,0,0,0-.313.065A.432.432,0,0,1,238.721,252Zm-.47-.459a.589.589,0,0,1,.374.139c.092.073.1.072.194,0a.582.582,0,0,1,.551-.111c.117.033.125.03.185-.076a.578.578,0,0,1,.459-.311c.13-.017.13-.017.148-.149a.568.568,0,0,1,.322-.464c.077-.038.091-.049.069-.165l0-.016a.157.157,0,0,0,0-.023.507.507,0,0,1,.089-.489c.1-.135.1-.135,0-.267a.531.531,0,0,1-.1-.48c.041-.155.041-.155-.1-.244l-.08-.052a.4.4,0,0,1-.174-.264c-.007-.038-.014-.077-.022-.115l-.005-.026c-.019-.1-.026-.1-.122-.124-.038-.008-.076-.015-.114-.021a.446.446,0,0,1-.314-.208.766.766,0,0,0-.129-.17.753.753,0,0,0-.208.029.457.457,0,0,1-.364-.07.77.77,0,0,0-.189-.11h0a.748.748,0,0,0-.185.108.443.443,0,0,1-.368.072l-.034-.008a.619.619,0,0,0-.143-.025c-.037,0-.055,0-.1.087a.57.57,0,0,1-.459.313c-.132.016-.132.016-.149.146a.581.581,0,0,1-.309.459c-.11.062-.112.067-.079.184a.581.581,0,0,1-.11.551c-.075.1-.075.1,0,.2a.579.579,0,0,1,.107.553c-.029.1-.024.113.07.17a.608.608,0,0,1,.321.479c.014.12.014.12.138.136a.585.585,0,0,1,.467.313c.058.1.066.108.177.076A.675.675,0,0,1,238.251,251.543Zm.47-.176h0a1.626,1.626,0,0,1,0-3.253h.006a1.626,1.626,0,1,1,0,3.253Zm0-2.986a1.36,1.36,0,0,0,0,2.72h0a1.362,1.362,0,0,0,1.361-1.356h0a1.364,1.364,0,0,0-1.36-1.364Z" transform="translate(-236.461 -247.489)" fill="#9aa1b1"/>
      </g>
    </g>
    <g id="Group_2073" data-name="Group 2073" transform="translate(194.769 177.611)">
      <path id="Path_2331" data-name="Path 2331" d="M239.931,305.249h-4.686l.792-1.6.239.118-.6,1.215h3.817l-.616-1.18.236-.123Z" transform="translate(-235.245 -303.649)" fill="#9aa1b1"/>
    </g>
    <g id="Group_2074" data-name="Group 2074" transform="translate(196.405 175.5)">
      <path id="Path_2332" data-name="Path 2332" d="M260.12,273.255h-.153v-.922l-.155.095v-.158l.155-.1h.153Z" transform="translate(-259.813 -272.154)" fill="#9aa1b1"/>
      <path id="Path_2333" data-name="Path 2333" d="M268.214,273a.314.314,0,0,1-.079-.227v-.494a.312.312,0,0,1,.079-.228.371.371,0,0,1,.463,0,.313.313,0,0,1,.079.228v.494a.312.312,0,0,1-.079.228.37.37,0,0,1-.463,0Zm.351-.106a.175.175,0,0,0,.038-.122v-.494a.176.176,0,0,0-.038-.122.191.191,0,0,0-.239,0,.175.175,0,0,0-.038.122v.494a.175.175,0,0,0,.039.122.19.19,0,0,0,.239,0Z" transform="translate(-267.581 -271.965)" fill="#9aa1b1"/>
    </g>
  </g>
</svg>
